Part 3 – BIOL90042 R Course
…
We can see from the plots that models with a learning rate of 0.1 perform the best. There is little difference by tree depth however. To extract the combination of hyper-parameters that performs the best, use select_best(). Note we can only use one metric to determine the best model!

best_params <- select_best(xgb_tune_res, metric ="roc_auc" )
best_params

# A tibble: 1 × 3
  tree_depth learn_rate .config         
       <int>      <dbl> <chr>           
1          8        0.1 pre0_mod15_post0

Confirm that the best model has been selected, by printing all results and sorting on descending mean:

collect_metrics(xgb_tune_res) %>% arrange(desc(mean))

# A tibble: 50 × 8
   tree_depth learn_rate .metric .estimator  mean     n std_err .config         
        <int>      <dbl> <chr>   <chr>      <dbl> <int>   <dbl> <chr>           
 1          8   0.1      roc_auc binary     0.846     5  0.0166 pre0_mod15_post0
 2         11   0.1      roc_auc binary     0.846     5  0.0166 pre0_mod20_post0
 3         15   0.1      roc_auc binary     0.846     5  0.0166 pre0_mod25_post0
 4          4   0.1      roc_auc binary     0.841     5  0.0198 pre0_mod10_post0
 5          1   0.1      roc_auc binary     0.828     5  0.0326 pre0_mod05_post0
 6          1   0.000562 roc_auc binary     0.810     5  0.0261 pre0_mod04_post0
 7          4   0.000562 roc_auc binary     0.777     5  0.0316 pre0_mod09_post0
 8          8   0.000562 roc_auc binary     0.768     5  0.0369 pre0_mod14_post0
 9         11   0.000562 roc_auc binary     0.768     5  0.0369 pre0_mod19_post0
10         15   0.000562 roc_auc binary     0.768     5  0.0369 pre0_mod24_post0
# ℹ 40 more rows
…
