3 Working with data - Part 2 – BIOL90042 R Course
…
Mutate allows you to add new columns to a data frame

The mutate() function is used to add new columns to a data frame, or modify existing columns, often by performing some sort of calculation. For example, we can add a new column to m_dose that contains the drug dose in mg (rather than g):

m_dose %>%
  # add a new column called drug_dose_mg
  # convert drug_dose_g to mg by multiplying by 1000
  mutate(drug_dose_mg = drug_dose_g * 1000) %>%
  # just select the drug dose columns so we can compare them
  select(drug_dose_g, drug_dose_mg)

# A tibble: 344 × 2
   drug_dose_g drug_dose_mg
         <dbl>        <dbl>
 1     0.00181         1.81
 2     0.00186         1.86
 3     0.00195         1.95
 4    NA              NA   
 5     0.00193         1.93
 6     0.0019          1.9 
 7     0.00181         1.81
 8     0.00195         1.95
 9     0.00193         1.93
10     0.0019          1.9 
# ℹ 334 more rows

You can see that the drug_dose_mg column has been added to the data frame, and it contains, for each row, the value of the drug_dose_g column multiplied by 1000 (NA values are preserved).

These calculations can be as complex as you like, and involve multiple different columns. For example, to add a new column to the m_dose data frame that calculates the weight lost as a percentage of the initial weight:

m_dose %>%
  # calculate the % of initial weight that was lost
  mutate(weight_lost_percent = (weight_lost_g / initial_weight_g) * 100)

# A tibble: 344 × 10
   mouse_strain cage_number weight_lost_g replicate sex    drug_dose_g
   <chr>        <chr>               <dbl> <chr>     <chr>        <dbl>
 1 CD-1         1A                   3.75 rep1      male       0.00181
 2 CD-1         1A                   3.8  rep1      female     0.00186
 3 CD-1         1A                   3.25 rep1      female     0.00195
 4 CD-1         1A                  NA    rep1      <NA>      NA      
 5 CD-1         1A                   3.45 rep1      female     0.00193
 6 CD-1         1A                   3.65 rep1      male       0.0019 
 7 CD-1         1A                   3.62 rep1      female     0.00181
 8 CD-1         1A                   4.68 rep1      male       0.00195
 9 CD-1         1A                   3.48 rep1      <NA>       0.00193
10 CD-1         1A                   4.25 rep1      <NA>       0.0019 
# ℹ 334 more rows
# ℹ 4 more variables: tail_length_mm <dbl>, initial_weight_g <dbl>,
#   id_num <dbl>, weight_lost_percent <dbl>

A useful helper function for mutate() is the case_when() function, which allows you to create new columns based on multiple conditions. We do this with the notation case_when(condition1 ~ value1, condition2 ~ value2, ...).

For example, to add a new column to the m_dose data frame that categorises the mice based on how much weight they lost:

m_dose %>%
  # create a new column called weight_loss_category
  mutate(weight_loss_category = case_when(
    weight_lost_g < 4 ~ "Low", # separate conditions with a comma
    weight_lost_g <= 5 ~ "Medium",
    weight_lost_g > 5 ~ "High"
  )) %>%
  select(weight_lost_g, weight_loss_category)

# A tibble: 344 × 2
   weight_lost_g weight_loss_category
           <dbl> <chr>               
 1          3.75 Low                 
 2          3.8  Low                 
 3          3.25 Low                 
 4         NA    <NA>                
 5          3.45 Low                 
 6          3.65 Low                 
 7          3.62 Low                 
 8          4.68 Medium              
 9          3.48 Low                 
10          4.25 Medium              
# ℹ 334 more rows
…
Fallback with default value(s)

In the above example, what would happen if a mouse lost -1g (gained weight)? It wouldn’t fit any of the conditions, so it would get an NA in the weight_loss_category column. Sometimes you might want this behaviour, but other times you would prefer to specify a ‘fallback’ category that will be assigned to everything that doesn’t fit in the other categories. You can do this by including a .default = argument at the end of the case_when() function. For example:

m_dose %>%
  # create a new column called weight_loss_category
  mutate(weight_loss_category = case_when(
    weight_lost_g < 4 ~ "Low", # separate conditions with a comma
    weight_lost_g <= 5 ~ "Medium",
    weight_lost_g > 5 ~ "High",
    .default = "Unknown"
  )) %>%
  select(weight_lost_g, weight_loss_category)

# A tibble: 344 × 2
   weight_lost_g weight_loss_category
           <dbl> <chr>               
 1          3.75 Low                 
 2          3.8  Low                 
 3          3.25 Low                 
 4         NA    Unknown             
 5          3.45 Low                 
 6          3.65 Low                 
 7          3.62 Low                 
 8          4.68 Medium              
 9          3.48 Low                 
10          4.25 Medium              
# ℹ 334 more rows
Notice how the NA value in the fourth row is now categorised as ‘Unknown’.

One final thing to note is that mutate() can be used to modify existing columns as well as add new ones. To do this, just use the name of the existing column as the ‘new’ one.

For example, let’s use mutate() together with case_when() to modify the sex column so that it uses M and F instead male and female:

m_dose %>%
  # modify sex column
  mutate(sex = case_when(
    sex == "female" ~ "F",
    sex == "male" ~ "M",
    # if neither, code it as 'X'
    .default = "X"))

# A tibble: 344 × 9
   mouse_strain cage_number weight_lost_g replicate sex   drug_dose_g
   <chr>        <chr>               <dbl> <chr>     <chr>       <dbl>
 1 CD-1         1A                   3.75 rep1      M         0.00181
 2 CD-1         1A                   3.8  rep1      F         0.00186
 3 CD-1         1A                   3.25 rep1      F         0.00195
 4 CD-1         1A                  NA    rep1      X        NA      
 5 CD-1         1A                   3.45 rep1      F         0.00193
 6 CD-1         1A                   3.65 rep1      M         0.0019 
 7 CD-1         1A                   3.62 rep1      F         0.00181
 8 CD-1         1A                   4.68 rep1      M         0.00195
 9 CD-1         1A                   3.48 rep1      X         0.00193
10 CD-1         1A                   4.25 rep1      X         0.0019 
# ℹ 334 more rows
# ℹ 3 more variables: tail_length_mm <dbl>, initial_weight_g <dbl>,
#   id_num <dbl>
…
Although grouping is most often used with summarise(), it can be used with dplyr functions too. For example mutate() function can also be used with grouping to add new columns to the data frame based on group-specific calculations. Let’s say we wanted to calculate the Z-score (also known as the standard score) to standardise the weight lost by each mouse within each strain.

As a reminder, the formula for calculating the Z-score is \(\frac{x - \mu}{\sigma}\), where \(x\) is the value (in our case the weight_lost_g column), \(\mu\) is the mean, and \(\sigma\) is the standard deviation.

We can calculate this for each mouse in each strain using the following code:

m_dose %>%
  # remove NAs before calculating the mean and SD
  filter(!is.na(weight_lost_g)) %>%
  mutate(weight_lost_z = (weight_lost_g - mean(weight_lost_g)) / sd(weight_lost_g), .by = mouse_strain) %>%
  # select the relevant columns
  select(mouse_strain, weight_lost_g, weight_lost_z)

# A tibble: 342 × 3
   mouse_strain weight_lost_g weight_lost_z
   <chr>                <dbl>         <dbl>
 1 CD-1                  3.75         0.108
 2 CD-1                  3.8          0.217
 3 CD-1                  3.25        -0.983
 4 CD-1                  3.45        -0.547
 5 CD-1                  3.65        -0.110
 6 CD-1                  3.62        -0.165
 7 CD-1                  4.68         2.12 
 8 CD-1                  3.48        -0.492
 9 CD-1                  4.25         1.20 
10 CD-1                  3.3         -0.874
# ℹ 332 more rows
…
The result of evaluating the expressions would be:

A data frame with an additional column weight_lost_kg that contains the weight lost in kilograms.

A data frame with the mean weight lost by all mice.

A data frame with the mean weight lost by mice in each cage.

To add a new column to the m_dose data frame that converts the mouse_strain column to lowercase, you can use mutate() as follows`:

m_dose %>%
  mutate(mouse_strain_lower = tolower(mouse_strain))

# A tibble: 344 × 10
   mouse_strain cage_number weight_lost_g replicate sex    drug_dose_g
   <chr>        <chr>               <dbl> <chr>     <chr>        <dbl>
 1 CD-1         1A                   3.75 rep1      male       0.00181
 2 CD-1         1A                   3.8  rep1      female     0.00186
 3 CD-1         1A                   3.25 rep1      female     0.00195
 4 CD-1         1A                  NA    rep1      <NA>      NA      
 5 CD-1         1A                   3.45 rep1      female     0.00193
 6 CD-1         1A                   3.65 rep1      male       0.0019 
 7 CD-1         1A                   3.62 rep1      female     0.00181
 8 CD-1         1A                   4.68 rep1      male       0.00195
 9 CD-1         1A                   3.48 rep1      <NA>       0.00193
10 CD-1         1A                   4.25 rep1      <NA>       0.0019 
# ℹ 334 more rows
# ℹ 4 more variables: tail_length_mm <dbl>, initial_weight_g <dbl>,
#   id_num <dbl>, mouse_strain_lower <chr>
…
