5 Putting it all together – BIOL90042 R Course
…
Understand how pivot and join functions can be used to reshape and combine entire data frames

5.1 Introduction to the dataset

In this chapter we will use the mousezempic dosage data m_dose and mouse expression data m_exp data frames, which contain information about the mice including mousezempic dose, and their gene expression levels, respectively.

library(tidyverse)
library(patchwork)

# read in dosage data
m_dose <- read_csv("data/mousezempic_dosage_data.csv")
m_dose

# A tibble: 344 × 9
   mouse_strain cage_number weight_lost_g replicate sex    drug_dose_g
   <chr>        <chr>               <dbl> <chr>     <chr>        <dbl>
 1 CD-1         1A                   3.75 rep1      male       0.00181
 2 CD-1         1A                   3.8  rep1      female     0.00186
 3 CD-1         1A                   3.25 rep1      female     0.00195
 4 CD-1         1A                  NA    rep1      <NA>      NA      
 5 CD-1         1A                   3.45 rep1      female     0.00193
 6 CD-1         1A                   3.65 rep1      male       0.0019 
 7 CD-1         1A                   3.62 rep1      female     0.00181
 8 CD-1         1A                   4.68 rep1      male       0.00195
 9 CD-1         1A                   3.48 rep1      <NA>       0.00193
10 CD-1         1A                   4.25 rep1      <NA>       0.0019 
# ℹ 334 more rows
# ℹ 3 more variables: tail_length_mm <dbl>, initial_weight_g <dbl>,
#   id_num <dbl>

# read in expression data
m_exp <- read_tsv("data/mousezempic_expression_data.tsv")
m_exp

# A tibble: 453 × 11
   id_num Th_rep1 Th_rep2 Th_rep3 Prlh_rep1 Prlh_rep2 Prlh_rep3 Hprt1_rep1
    <dbl>   <dbl>   <dbl>   <dbl>     <dbl>     <dbl>     <dbl>      <dbl>
 1      1   1431.   2737.   2036.      297.      428.      320.       741.
 2      2   2699.   4180.   3860.      388.      680.      500.       843.
 3      3   3596.   5194.   4128.      201.      346.      266.      1047.
 4      4   2723.   4442.   3728.      317.      576.      478.       541.
 5      5   2197.   3656.   2887.      114.      205.      173.       798.
 6      6   2316.   3949.   3355.      242.      383.      305.       763.
 7      7   1570.   2740.   2129.      294.      489.      427.       796.
 8      8   2683.   4749.   3563.      231.      400.      309.       922.
 9      9   3023.   5170.   3830.      289.      464.      390.       921.
10     10   3254.   5980.   4250.      337.      583.      436.       740.
# ℹ 443 more rows
# ℹ 3 more variables: Hprt1_rep2 <dbl>, Hprt1_rep3 <dbl>, group <chr>
…
5.3.1.2 Pivot longer

Data can often arrive in the form similar to the contingency table we constructed. Although this data is easy to read, it is difficult to operate on using tidyverse functions because the mouse_strain data is now stored in the column names and not inside a column we can use as a variable. In order to make this kind of data tidy, we use the pivot_longer() function, which will create a pair of columns from the column names and the value of the corresponding cell.

To demonstrate pivot_longer(), we will use the m_exp that we downloaded earlier. This data frame contains the expression levels of two genes (TH and PRLH) suspected to be upregulated in mice taking MouseZempic, as well as one housekeeping gene (HPRT1), all measured in triplicate.

m_exp

# A tibble: 453 × 11
   id_num Th_rep1 Th_rep2 Th_rep3 Prlh_rep1 Prlh_rep2 Prlh_rep3 Hprt1_rep1
    <dbl>   <dbl>   <dbl>   <dbl>     <dbl>     <dbl>     <dbl>      <dbl>
 1      1   1431.   2737.   2036.      297.      428.      320.       741.
 2      2   2699.   4180.   3860.      388.      680.      500.       843.
 3      3   3596.   5194.   4128.      201.      346.      266.      1047.
 4      4   2723.   4442.   3728.      317.      576.      478.       541.
 5      5   2197.   3656.   2887.      114.      205.      173.       798.
 6      6   2316.   3949.   3355.      242.      383.      305.       763.
 7      7   1570.   2740.   2129.      294.      489.      427.       796.
 8      8   2683.   4749.   3563.      231.      400.      309.       922.
 9      9   3023.   5170.   3830.      289.      464.      390.       921.
10     10   3254.   5980.   4250.      337.      583.      436.       740.
# ℹ 443 more rows
# ℹ 3 more variables: Hprt1_rep2 <dbl>, Hprt1_rep3 <dbl>, group <chr>
…
values_to: the name of a new column that will contain the values from the original columns.

In this particular case here’s what the code would look like:

m_exp_long <- m_exp %>%
  pivot_longer(
    cols = contains("_rep"),
    names_to = "measurement",
    values_to = "expression_level"
  )

m_exp_long

# A tibble: 4,077 × 4
   id_num group     measurement expression_level
    <dbl> <chr>     <chr>                  <dbl>
 1      1 treatment Th_rep1                1431.
 2      1 treatment Th_rep2                2737.
 3      1 treatment Th_rep3                2036.
 4      1 treatment Prlh_rep1               297.
 5      1 treatment Prlh_rep2               428.
 6      1 treatment Prlh_rep3               320.
 7      1 treatment Hprt1_rep1              741.
 8      1 treatment Hprt1_rep2             1300.
 9      1 treatment Hprt1_rep3              988.
10      2 treatment Th_rep1                2699.
# ℹ 4,067 more rows

Perplexed by pivoting?

Pivoting can be a bit tricky to get your head around! Often when you’re doing analysis, you’ll run into the problem of knowing that you need to pivot, but not knowing exactly what arguments to use. In these cases, it can be helpful to look at examples online, like those in the R for Data Science book.

5.3.2 Separating data in a column

When we look at the measurement column we see that it contains two pieces of information. The gene being measured and the replicate number separated by “_”. We can use the separate() function to split this data into individual columns so that one column does not contain multiple variables.

m_exp_separate <- m_exp_long %>%
  separate(measurement, into = c("gene", "replicate"), sep = "_")

m_exp_separate

# A tibble: 4,077 × 5
   id_num group     gene  replicate expression_level
    <dbl> <chr>     <chr> <chr>                <dbl>
 1      1 treatment Th    rep1                 1431.
 2      1 treatment Th    rep2                 2737.
 3      1 treatment Th    rep3                 2036.
 4      1 treatment Prlh  rep1                  297.
 5      1 treatment Prlh  rep2                  428.
 6      1 treatment Prlh  rep3                  320.
 7      1 treatment Hprt1 rep1                  741.
 8      1 treatment Hprt1 rep2                 1300.
 9      1 treatment Hprt1 rep3                  988.
10      2 treatment Th    rep1                 2699.
# ℹ 4,067 more rows

5.3.3 Summarising values

Now suppose we wanted to combine the gene expression data across replicates by adding them up, we can use the summarise() function to do so.

m_exp_rep_summed <- m_exp_separate %>%
  summarise(
    expression_level = sum(expression_level),
    .by = c(id_num, group, gene)
  )

m_exp_rep_summed

# A tibble: 1,359 × 4
   id_num group     gene  expression_level
    <dbl> <chr>     <chr>            <dbl>
 1      1 treatment Th               6204.
 2      1 treatment Prlh             1045.
 3      1 treatment Hprt1            3029.
 4      2 treatment Th              10738.
 5      2 treatment Prlh             1568.
 6      2 treatment Hprt1            3669.
 7      3 treatment Th              12918.
 8      3 treatment Prlh              813.
 9      3 treatment Hprt1            4297.
10      4 treatment Th              10892.
# ℹ 1,349 more rows
…
We see that all 3 genes are slightly higher in the treatment group.

5.3.4 Reshaping for plotting

Suppose we wanted to plot the value of two genes against each other. We would need the expression values of genes to be in individual columns. However we have lost this structure after using pivot_longer(). We can restore it using pivot_wider() after we have summarised the replicates.

m_exp_rep_summed_wide <- m_exp_rep_summed %>% 
  pivot_wider( names_from = "gene", values_from = "expression_level")

m_exp_rep_summed_wide

# A tibble: 453 × 5
   id_num group         Th  Prlh Hprt1
    <dbl> <chr>      <dbl> <dbl> <dbl>
 1      1 treatment  6204. 1045. 3029.
 2      2 treatment 10738. 1568. 3669.
 3      3 treatment 12918.  813. 4297.
 4      4 treatment 10892. 1371. 2213.
 5      5 treatment  8740.  491. 3159.
 6      6 treatment  9620.  930. 2875.
 7      7 treatment  6440. 1211. 3339.
 8      8 treatment 10996.  939. 3854.
 9      9 treatment 12022. 1144. 3781.
10     10 treatment 13485. 1356. 2848.
# ℹ 443 more rows
…
The left_join() function allows you to combine two data frames

A common and basic join is the left_join(). It takes two data frame as arguments and optionally a vector of common columns to perform the join on. The reason it’s called a left-join because it retains all rows from the left data frame while adding on columns from the right data frame only when the data in the designed joining column(s) match.

For example, we can join the m_dose data frame with the m_exp_rep_summed_wide data frame based on the id_num column, which is common to both data frames:

left_join(m_dose, m_exp_rep_summed_wide, by = "id_num")

# A tibble: 344 × 13
   mouse_strain cage_number weight_lost_g replicate sex    drug_dose_g
   <chr>        <chr>               <dbl> <chr>     <chr>        <dbl>
 1 CD-1         1A                   3.75 rep1      male       0.00181
 2 CD-1         1A                   3.8  rep1      female     0.00186
 3 CD-1         1A                   3.25 rep1      female     0.00195
 4 CD-1         1A                  NA    rep1      <NA>      NA      
 5 CD-1         1A                   3.45 rep1      female     0.00193
 6 CD-1         1A                   3.65 rep1      male       0.0019 
 7 CD-1         1A                   3.62 rep1      female     0.00181
 8 CD-1         1A                   4.68 rep1      male       0.00195
 9 CD-1         1A                   3.48 rep1      <NA>       0.00193
10 CD-1         1A                   4.25 rep1      <NA>       0.0019 
# ℹ 334 more rows
# ℹ 7 more variables: tail_length_mm <dbl>, initial_weight_g <dbl>,
#   id_num <dbl>, group <chr>, Th <dbl>, Prlh <dbl>, Hprt1 <dbl>
…
If the values from the left data frame matches to multiple rows of the column in the right data frame, the left_join() will duplicate the data from the left data frame for each match to the right. This can cause issues with downstream summarisation if not carefully considered.

5.3.5.1 Joining with mismatched column names

Often the column containing the matching information has different names in different data frames. For example what might be called “id_num” in one data frame could also be called “mouse_id” in another data frame. In those cases the by argument of left_join() can be formatted to let the function know which column in the left data frame matches to which column on the right.

We will demonstrate this by renaming the id_num column in the m_dose to mouse_id and using it to perform the join instead. We will use the join_by(mouse_id == id_num) helper function for the by argument to specify the different columns we wish to join by.

# rename id_num to mouse_id
m_dose_data_new <- m_dose %>%
  rename(mouse_id = id_num)

m_dose_data_new

# A tibble: 344 × 9
   mouse_strain cage_number weight_lost_g replicate sex    drug_dose_g
   <chr>        <chr>               <dbl> <chr>     <chr>        <dbl>
 1 CD-1         1A                   3.75 rep1      male       0.00181
 2 CD-1         1A                   3.8  rep1      female     0.00186
 3 CD-1         1A                   3.25 rep1      female     0.00195
 4 CD-1         1A                  NA    rep1      <NA>      NA      
 5 CD-1         1A                   3.45 rep1      female     0.00193
 6 CD-1         1A                   3.65 rep1      male       0.0019 
 7 CD-1         1A                   3.62 rep1      female     0.00181
 8 CD-1         1A                   4.68 rep1      male       0.00195
 9 CD-1         1A                   3.48 rep1      <NA>       0.00193
10 CD-1         1A                   4.25 rep1      <NA>       0.0019 
# ℹ 334 more rows
# ℹ 3 more variables: tail_length_mm <dbl>, initial_weight_g <dbl>,
#   mouse_id <dbl>

# perform left join by matching mouse_id of the left data frame to id_num of the right data frame
m_joined_data <- left_join(
  m_dose_data_new, m_exp_rep_summed_wide,
  by = join_by(mouse_id == id_num)
) %>%
  drop_na() # keep only rows without NA

m_joined_data

# A tibble: 333 × 13
   mouse_strain cage_number weight_lost_g replicate sex    drug_dose_g
   <chr>        <chr>               <dbl> <chr>     <chr>        <dbl>
 1 CD-1         1A                   3.75 rep1      male       0.00181
 2 CD-1         1A                   3.8  rep1      female     0.00186
 3 CD-1         1A                   3.25 rep1      female     0.00195
 4 CD-1         1A                   3.45 rep1      female     0.00193
 5 CD-1         1A                   3.65 rep1      male       0.0019 
 6 CD-1         1A                   3.62 rep1      female     0.00181
 7 CD-1         1A                   4.68 rep1      male       0.00195
 8 CD-1         1A                   3.2  rep1      female     0.00182
 9 CD-1         1A                   3.8  rep1      male       0.00191
10 CD-1         1A                   4.4  rep1      male       0.00198
# ℹ 323 more rows
# ℹ 7 more variables: tail_length_mm <dbl>, initial_weight_g <dbl>,
#   mouse_id <dbl>, group <chr>, Th <dbl>, Prlh <dbl>, Hprt1 <dbl>
…
If we wanted to plot all 3 genes, one way is to make 3 different plots, but we can also use facets. However to use facets we would need to have the faceting variable in a column, and currently our gene names are in the column names. So we must use pivot_longer().

m_joined_data_long <- m_joined_data %>%
  pivot_longer(cols = c(Th, Prlh, Hprt1), names_to = "gene", values_to = "expression")

m_joined_data_long

# A tibble: 999 × 12
   mouse_strain cage_number weight_lost_g replicate sex    drug_dose_g
   <chr>        <chr>               <dbl> <chr>     <chr>        <dbl>
 1 CD-1         1A                   3.75 rep1      male       0.00181
 2 CD-1         1A                   3.75 rep1      male       0.00181
 3 CD-1         1A                   3.75 rep1      male       0.00181
 4 CD-1         1A                   3.8  rep1      female     0.00186
 5 CD-1         1A                   3.8  rep1      female     0.00186
 6 CD-1         1A                   3.8  rep1      female     0.00186
 7 CD-1         1A                   3.25 rep1      female     0.00195
 8 CD-1         1A                   3.25 rep1      female     0.00195
 9 CD-1         1A                   3.25 rep1      female     0.00195
10 CD-1         1A                   3.45 rep1      female     0.00193
# ℹ 989 more rows
# ℹ 6 more variables: tail_length_mm <dbl>, initial_weight_g <dbl>,
#   mouse_id <dbl>, group <chr>, gene <chr>, expression <dbl>
…
save(
  m_exp_rep_summed,
  m_exp_rep_summed_wide,
  m_joined_data_long,
  file = 'data_processed/mousezempic_cleaned_joined.Rdata')

5.7 Another case study - WHO tuberculosis data

We can look at another dataset containing tuberculosis (TB) cases broken down by year, country, age, gender, and diagnosis method. The data comes from the 2014 World Health Organization Global Tuberculosis Report and is typical of many real-life datasets in terms of structure. There are redundant columns, odd variable codes and missing values.

We want to tidy it up using the tools we have learned in order to try to extract some information from this data.

who

# A tibble: 7,240 × 60
   country  iso2  iso3   year new_sp_m014 new_sp_m1524 new_sp_m2534 new_sp_m3544
   <chr>    <chr> <chr> <dbl>       <dbl>        <dbl>        <dbl>        <dbl>
 1 Afghani… AF    AFG    1980          NA           NA           NA           NA
 2 Afghani… AF    AFG    1981          NA           NA           NA           NA
 3 Afghani… AF    AFG    1982          NA           NA           NA           NA
 4 Afghani… AF    AFG    1983          NA           NA           NA           NA
 5 Afghani… AF    AFG    1984          NA           NA           NA           NA
 6 Afghani… AF    AFG    1985          NA           NA           NA           NA
 7 Afghani… AF    AFG    1986          NA           NA           NA           NA
 8 Afghani… AF    AFG    1987          NA           NA           NA           NA
 9 Afghani… AF    AFG    1988          NA           NA           NA           NA
10 Afghani… AF    AFG    1989          NA           NA           NA           NA
# ℹ 7,230 more rows
# ℹ 52 more variables: new_sp_m4554 <dbl>, new_sp_m5564 <dbl>,
#   new_sp_m65 <dbl>, new_sp_f014 <dbl>, new_sp_f1524 <dbl>,
#   new_sp_f2534 <dbl>, new_sp_f3544 <dbl>, new_sp_f4554 <dbl>,
#   new_sp_f5564 <dbl>, new_sp_f65 <dbl>, new_sn_m014 <dbl>,
#   new_sn_m1524 <dbl>, new_sn_m2534 <dbl>, new_sn_m3544 <dbl>,
#   new_sn_m4554 <dbl>, new_sn_m5564 <dbl>, new_sn_m65 <dbl>, …
…
Since we believe that many of these column names are in fact encoding data, we want to pivot_longer() to put that information in a column for further processing.

# pivot longer with columns 5 to 60, drop NA values
who_long <- who %>%
  pivot_longer(
    cols = 5:60, # alternatively contains("_")
    names_to = "description",
    values_to = "cases",
    values_drop_na = TRUE
  )

who_long

# A tibble: 76,046 × 6
   country     iso2  iso3   year description  cases
   <chr>       <chr> <chr> <dbl> <chr>        <dbl>
 1 Afghanistan AF    AFG    1997 new_sp_m014      0
 2 Afghanistan AF    AFG    1997 new_sp_m1524    10
 3 Afghanistan AF    AFG    1997 new_sp_m2534     6
 4 Afghanistan AF    AFG    1997 new_sp_m3544     3
 5 Afghanistan AF    AFG    1997 new_sp_m4554     5
 6 Afghanistan AF    AFG    1997 new_sp_m5564     2
 7 Afghanistan AF    AFG    1997 new_sp_m65       0
 8 Afghanistan AF    AFG    1997 new_sp_f014      5
 9 Afghanistan AF    AFG    1997 new_sp_f1524    38
10 Afghanistan AF    AFG    1997 new_sp_f2534    36
# ℹ 76,036 more rows

It doesn’t look like the values in description are unique, so we can try to count them to get a sense of what we’re dealing with. It will show us the unique values as well as the counts for each value.

who_long %>%
  count(description)

# A tibble: 56 × 2
   description      n
   <chr>        <int>
 1 new_ep_f014   1032
 2 new_ep_f1524  1021
 3 new_ep_f2534  1021
 4 new_ep_f3544  1021
 5 new_ep_f4554  1017
 6 new_ep_f5564  1017
 7 new_ep_f65    1014
 8 new_ep_m014   1038
 9 new_ep_m1524  1026
10 new_ep_m2534  1020
# ℹ 46 more rows
…
