Statistics in R Primer – BIOL90042 R Course
…
First we load the .Rdata file to restore the environment objects (data frames) we created:

load('data_processed/mousezempic_cleaned_joined.Rdata')

library(tidyverse)
library(tidyrstats)

Testing differences between groups (discrete x)

Long format data works seamlessly with ggplot(), as follows:

m_exp_rep_summed

# A tibble: 1,359 × 4
   id_num group     gene  expression_level
    <dbl> <chr>     <chr>            <dbl>
 1      1 treatment Th               6204.
 2      1 treatment Prlh             1045.
 3      1 treatment Hprt1            3029.
 4      2 treatment Th              10738.
 5      2 treatment Prlh             1568.
 6      2 treatment Hprt1            3669.
 7      3 treatment Th              12918.
 8      3 treatment Prlh              813.
 9      3 treatment Hprt1            4297.
10      4 treatment Th              10892.
# ℹ 1,349 more rows
…
